Which City is Adapting fastest to Electric Vehicles? – STA 9750 2024 Submission Material
…
# analysis
miles_map <-miles_clean %>%
  select(state_abbr,miles_per_capita)

miles_t10 <-miles_clean %>%
  arrange(desc(miles_per_capita))

miles_b10 <-miles_clean %>%
  arrange(miles_per_capita)

print(miles_t10)

# A tibble: 51 × 4
   state_abbr total_population   total_miles miles_per_capita
   <chr>                 <dbl>         <dbl>            <dbl>
 1 GA                  4335303  62183953140.           14344.
 2 TN                  3936570  54778368124.           13915.
 3 AL                  2967987  39320635420            13248.
 4 FL                 10051966 119350862382.           11873.
 5 MS                  1533204  17016500110.           11099.
 6 NC                  5603342  60474337673.           10793.
 7 DE                   267450   2877961456            10761.
 8 MO                  4016772  42760810886.           10646.
 9 VT                   626177   6630462002            10589.
10 IN                  4396654  46053132815            10475.
# ℹ 41 more rows

Miles Driven

print(miles_b10)

# A tibble: 51 × 4
   state_abbr total_population   total_miles miles_per_capita
   <chr>                 <dbl>         <dbl>            <dbl>
 1 SD                   604870   2608514572.            4313.
 2 ND                   566629   2585199613.            4562.
 3 IA                  2485995  13001478339.            5230.
 4 MT                   555049   3074559164             5539.
 5 WY                   403018   2257874011.            5602.
 6 DC                   659009   3715895205             5639.
 7 ID                  1143115   6609722833             5782.
 8 NE                  1460733   8632545946.            5910.
 9 NY                 19694990 122719867084.            6231.
10 AK                   511975   3193804748.            6238.
# ℹ 41 more rows
…
City and County Energy Profiles source: https://catalog.data.gov/dataset/city-and-county-energy-profiles-60fbd

EIA - Power Generation

####power generation
file_path_power <- "C:/Users/velas/Documents/STA9750-2024-FALL/EIA_powergeneration.xlsx"

# Read the sheet
power <- read_excel(path = file_path_power, sheet = "Sheet1")

print(power)

# A tibble: 54,002 × 9
    Year `State Code` `Producer Type`        `Fuel Source` Generators Facilities
   <dbl> <chr>        <chr>                  <chr>         <lgl>           <dbl>
 1  1990 AK           Combined Heat and Pow… All Sources   NA                  4
 2  1990 AK           Combined Heat and Pow… Coal          NA                  3
 3  1990 AK           Combined Heat and Pow… Petroleum     NA                  1
 4  1990 AK           Combined Heat and Pow… All Sources   NA                 23
 5  1990 AK           Combined Heat and Pow… Natural Gas   NA                 28
 6  1990 AK           Combined Heat and Pow… Petroleum     NA                  8
 7  1990 AK           Combined Heat and Pow… Wood and Woo… NA                  2
 8  1990 AK           Electric Generators, … All Sources   NA                125
 9  1990 AK           Electric Generators, … Coal          NA                  2
10  1990 AK           Electric Generators, … Hydroelectric NA                 20
# ℹ 53,992 more rows
# ℹ 3 more variables: `Nameplate Capacity (Megawatts)` <dbl>,
#   `Summer Capacity (Megawatts)` <dbl>, Renewable <dbl>
…
Energy Generation - by State

### interactive map - renewables per state
library(plotly)

power_2023 <- power %>%
  filter(Year == 2023) %>%
  group_by(Year, `State Code`, Renewable) %>%
  summarize(Total_Nameplate_Capacity = sum(`Nameplate Capacity (Megawatts)`, na.rm = TRUE)) %>%
  ungroup()

print(power_2023)

# A tibble: 104 × 4
    Year `State Code` Renewable Total_Nameplate_Capacity
   <dbl> <chr>            <dbl>                    <dbl>
 1  2023 AK                   0                   11203 
 2  2023 AK                   1                    1098.
 3  2023 AL                   0                  123248.
 4  2023 AL                   1                    7844.
 5  2023 AR                   0                   63957.
 6  2023 AR                   1                    4284.
 7  2023 AZ                   0                  117412.
 8  2023 AZ                   1                   15018 
 9  2023 CA                   0                  303789.
10  2023 CA                   1                   78318.
# ℹ 94 more rows
…
# analysis
miles_map <-miles_clean %>%
  select(state_abbr,miles_per_capita)

miles_t10 <-miles_clean %>%
  arrange(desc(miles_per_capita))

miles_b10 <-miles_clean %>%
  arrange(miles_per_capita)

print(miles_t10)

# A tibble: 51 × 4
   state_abbr total_population   total_miles miles_per_capita
   <chr>                 <dbl>         <dbl>            <dbl>
 1 GA                  4335303  62183953140.           14344.
 2 TN                  3936570  54778368124.           13915.
 3 AL                  2967987  39320635420            13248.
 4 FL                 10051966 119350862382.           11873.
 5 MS                  1533204  17016500110.           11099.
 6 NC                  5603342  60474337673.           10793.
 7 DE                   267450   2877961456            10761.
 8 MO                  4016772  42760810886.           10646.
 9 VT                   626177   6630462002            10589.
10 IN                  4396654  46053132815            10475.
# ℹ 41 more rows

Average Miles Drive

print(miles_b10)

# A tibble: 51 × 4
   state_abbr total_population   total_miles miles_per_capita
   <chr>                 <dbl>         <dbl>            <dbl>
 1 SD                   604870   2608514572.            4313.
 2 ND                   566629   2585199613.            4562.
 3 IA                  2485995  13001478339.            5230.
 4 MT                   555049   3074559164             5539.
 5 WY                   403018   2257874011.            5602.
 6 DC                   659009   3715895205             5639.
 7 ID                  1143115   6609722833             5782.
 8 NE                  1460733   8632545946.            5910.
 9 NY                 19694990 122719867084.            6231.
10 AK                   511975   3193804748.            6238.
# ℹ 41 more rows
…
