Mini-Project #03: Do Proportional Electoral College Allocations Yield a More Representative Presidency? – STA 9750 2024 Submission Material
…
#2000 results for president
presidents_2000 <- presidents %>%
  filter(year == 2000) %>%
  group_by(state) %>%
  slice_max(candidatevotes, n = 1, with_ties = FALSE) %>%
  select(state, candidate, party_simplified,candidatevotes)

#electral college number per state
house_of_reps_2000 <- house_of_reps |>
  filter(year == 2000) |>
  group_by(state) |>
  summarize(district_count = n_distinct(district))
print(house_of_reps_2000)

# A tibble: 50 × 2
   state       district_count
   <chr>                <int>
 1 ALABAMA                  7
 2 ALASKA                   1
 3 ARIZONA                  6
 4 ARKANSAS                 4
 5 CALIFORNIA              52
 6 COLORADO                 6
 7 CONNECTICUT              6
 8 DELAWARE                 1
 9 FLORIDA                 23
10 GEORGIA                 11
# ℹ 40 more rows
…
