Mini-Project #04: Monte Carlo-Informed Selection of CUNY Retirement Plans – STA 9750 2024 Submission Material
…
inflation_adjusted_benefit <- numeric(length = 30)
for (i in 1:30) {
  if (i > 3) {
    CPI <- mean(CPI_values[max(1, i - 11):i])  # Aggregate last 12 months
    inflation_adjusted_benefit[i] <- employee_data$Retirement_Benefit[i] *
      (1 + inflation_adjustment(CPI) / 100)
  }
}
employee_data <- employee_data %>%
  mutate(Inflation_Adjusted_Benefit = inflation_adjusted_benefit)

# View the final dataset
print(employee_data)

# A tibble: 30 × 6
    Year Salary Contribution    FAS Retirement_Benefit Inflation_Adjusted_Bene…¹
   <int>  <dbl>        <dbl>  <dbl>              <dbl>                     <dbl>
 1     1 45000         1350     NA                 NA                         0 
 2     2 47586.        1666.    NA                 NA                         0 
 3     3 50172.        1756. 47586.              2384.                        0 
 4     4 52759.        1847. 50172.              3352.                     3395.
 5     5 55345.        2491. 52759.              4405.                     4460.
 6     6 57931.        2607. 55345.              5546.                     5617.
 7     7 60517.        2723. 57931.              6772.                     6854.
 8     8 63103.        2840. 60517.              8085.                     8175.
 9     9 65690.        2956. 63103.              9484.                     9600.
10    10 68276.        3072. 65690.             10970.                    11104.
# ℹ 20 more rows
# ℹ abbreviated name: ¹​Inflation_Adjusted_Benefit
…
